{
  "port": 3002,
  "storage": {
    "src": {
      "type": "fs",
      "location": "/Users/jay/Documents/golang/src/graduate-project/upload/store"
    }
  },
  "kvstore": {
    "type": "cache"
  }
}
